Generate Analysis Results Programmes Using ARS Metadata • siera
…
In this example, an ARD programs can be called as follows:

# location to one of the created R scripts:
ARD_program <- file.path(paste0(output_folder,"/ARD_Out14-1-1.R"))

# run the program as-is.  This ingests the ADaM dataset(s) in the ADAM_folder location listed earlier.
source(ARD_program)
#> Warning in chisq.test(tab): Chi-squared approximation may be incorrect
#> Warning in chisq.test(tab): Chi-squared approximation may be incorrect

Once the ARD program(s) is run, the ARD is created. Among all the helper objects created, the ARD can be identified as the “ARD_outputname” object. Let’s view this object created by the previous command:

print(ARD_Out14_1_1)
#> # A tibble: 113 × 9
#>    Group1     res AnalsysisId MethodId OperationId OutputId pattern Group2 disp 
#>    <chr>    <dbl> <chr>       <chr>    <chr>       <chr>    <chr>   <chr>  <chr>
#>  1 Placebo  86    An01_05_SA… Mth01_C… Mth01_CatV… Out14-1… (N=XX)  <NA>   (N=8…
#>  2 Xanomel… 84    An01_05_SA… Mth01_C… Mth01_CatV… Out14-1… (N=XX)  <NA>   (N=8…
#>  3 Xanomel… 84    An01_05_SA… Mth01_C… Mth01_CatV… Out14-1… (N=XX)  <NA>   (N=8…
#>  4 Placebo  86    An03_01_Ag… Mth02_C… Mth02_Cont… Out14-1… XX      <NA>   86   
#>  5 Xanomel… 84    An03_01_Ag… Mth02_C… Mth02_Cont… Out14-1… XX      <NA>   84   
#>  6 Xanomel… 84    An03_01_Ag… Mth02_C… Mth02_Cont… Out14-1… XX      <NA>   84   
#>  7 Placebo  75.2  An03_01_Ag… Mth02_C… Mth02_Cont… Out14-1… XX.X    <NA>   75.2 
#>  8 Xanomel… 74.4  An03_01_Ag… Mth02_C… Mth02_Cont… Out14-1… XX.X    <NA>   74.4 
#>  9 Xanomel… 75.7  An03_01_Ag… Mth02_C… Mth02_Cont… Out14-1… XX.X    <NA>   75.7 
#> 10 Placebo   8.59 An03_01_Ag… Mth02_C… Mth02_Cont… Out14-1… (XX.XX) <NA>   (8.5…
#> # ℹ 103 more rows
…
